<svg width="69" height="66" viewBox="0 0 69 66" fill="none" xmlns="http://www.w3.org/2000/svg">
<path d="M61.9005 31.3C60.8005 33.6 61.3005 33.1 59.3005 34.2C61.4005 35.3 60.8005 34.8 61.9005 37.1C63.0005 34.8 62.5005 35.3 64.5005 34.2C62.5005 33.1 63.1005 33.6 61.9005 31.3Z" fill="#B28867"/>
<path d="M25.4005 0.8C27.1005 0.8 28.4005 1.1 29.7005 1.9C30.7005 0.4 32.0005 0 33.8005 0C35.8005 0 38.0005 1.4 38.0005 3.9C38.0005 4.5 37.0005 5 36.4005 4.2C35.9005 3.5 34.9005 3.3 34.3005 3.3C33.7005 3.3 32.7005 3.7 32.7005 4.6V27.4L34.0005 29.6L44.7005 8C45.6005 6.1 45.8005 4.7 45.0005 4.2C43.8005 3.5 42.7005 4.7 42.2005 4.1C41.7005 3.6 43.6005 1.3 46.2005 2.2C47.5005 2.7 48.2005 3.5 48.5005 4.5C49.8005 4.2 51.0005 4.8 52.0005 5.9C53.6005 7.7 53.0005 10.3 51.9005 11C51.3005 11.5 50.3005 11.6 49.8005 10.9C49.3005 10.3 49.6005 9.4 50.3005 8.9C50.4005 8.8 50.6005 8.7 50.9005 8.6C51.4005 8.5 51.5005 7.8 51.2005 7.5C50.9005 7.1 49.8005 6 47.9005 9.6L39.1005 26.4L41.1005 30.2C39.1005 31.1 37.9005 32.5 37.3005 33.3L36.5005 31.7L34.3005 35.7C33.6005 34.7 27.5005 25 27.5005 25V4.8C27.5005 4.2 27.0005 3.6 26.3005 3.6C25.8005 3.6 25.2005 4 25.1005 4.6C24.9005 5.5 24.2005 6.2 23.2005 6.2C22.2005 6.2 21.3005 5.4 21.3005 4.3C21.4005 2.8 23.1005 0.8 25.4005 0.8Z" fill="#B28867"/>
<path d="M41.4005 12.6L39.4005 16.6C38.3005 16.4 37.2005 16.3 36.0005 16.3C35.1005 16.3 34.3005 16.3 33.4005 16.4V12.4C36.1005 12.2 38.8005 12.3 41.4005 12.6Z" fill="#B28867"/>
<path d="M48.6005 25.8L48.8005 26.3L50.1005 29.9C48.8005 29.5 47.4005 29.3 45.9005 29.3C45.7005 29.3 45.5005 29.3 45.3005 29.3L44.7005 27.5L43.5005 29.6C43.0005 29.7 42.5005 29.9 42.0005 30L41.1005 28.4L44.9005 22C45.1005 21.6 45.5005 21.5 45.8005 21.5C46.9005 21.5 49.5005 23.2 50.3005 24C50.6005 24.3 50.7005 24.5 50.8005 24.7C51.0005 25.1 50.7005 25.4 50.4005 25.4C50.1005 25.4 49.6005 25.1 49.2005 25.1C48.6005 25.1 48.5005 25.4 48.6005 25.8Z" fill="#B28867"/>
<path d="M19.9005 25.1C19.5005 25.1 19.1005 25.4 18.7005 25.4C18.4005 25.4 18.1005 25.2 18.3005 24.7C18.4005 24.5 18.5005 24.3 18.8005 24C19.6005 23.2 22.2005 21.5 23.3005 21.5C23.6005 21.5 24.0005 21.6 24.2005 22C24.2005 22.1 34.9005 38.7 34.9005 38.7L37.1005 35.1L38.7005 38L34.4005 45.6L22.7005 28.4L18.5005 43.2C18.0005 42.8 17.6005 42.4 17.1005 42C16.9005 41.8 16.7005 41.6 16.5005 41.4C17.4005 38.3 20.0005 29.5 21.0005 26.2C21.2005 25.4 20.5005 25.1 19.9005 25.1Z" fill="#B28867"/>
<path d="M8.60049 19C8.70049 19 8.70049 19 8.80049 19C9.80049 19 10.7005 19.7 10.7005 20.6C10.7005 21.5 9.90049 22.2 8.80049 22.2C8.60049 22.2 8.30049 22.1 8.10049 22.1C7.50049 21.9 7.00049 22.4 7.00049 23C7.00049 23.6 8.50049 26.1 12.6005 22.5C14.5005 20.7 16.3005 19.3 18.0005 18.2C20.2005 16.8 22.8005 15.4 25.8005 14.3C26.1005 14.2 26.4005 14.1 26.7005 14V18C24.0005 19 21.8005 20.2 20.0005 21.4C19.0005 22 18.2005 22.7 17.4005 23.3C16.6005 23.9 16.0005 24.6 15.4005 25.2C14.3005 26.4 13.6005 27.4 13.1005 28.1C12.0005 30.1 12.8005 31.6 13.9005 32C14.0005 32 14.0005 32.2 13.9005 32.3C13.6005 32.5 12.8005 33 11.7005 32.8C9.70049 32.5 8.90049 30.5 9.20049 28.7C9.00049 28.7 8.70049 28.8 8.50049 28.8C6.60049 28.8 4.90049 26.8 4.90049 24.1C4.90049 21.5 7.10049 19 8.60049 19Z" fill="#B28867"/>
<path d="M0.000488281 33.3C3.10049 31.6 2.30049 32.3 4.00049 28.9C5.70049 32.4 4.90049 31.6 8.00049 33.3C4.90049 35 5.70049 34.3 4.00049 37.7C2.30049 34.2 3.10049 34.9 0.000488281 33.3Z" fill="#B28867"/>
<path d="M12.4005 46.3C8.30049 42.8 6.90049 45.3 6.90049 45.8C6.90049 46.3 7.30049 46.7 7.80049 46.7C8.10049 46.7 8.30049 46.5 8.80049 46.5C9.80049 46.5 10.7005 47.2 10.7005 48.1C10.7005 49 9.90049 49.7 8.80049 49.7H8.70049C7.20049 49.7 5.10049 47.2 5.10049 44.7C5.10049 42.2 6.50049 40.4 8.30049 40.1C8.10049 39.5 8.00049 38.9 8.00049 38.2C8.00049 37 8.60049 34.1 12.4005 34.1C13.8005 34.1 14.8005 35.1 14.8005 35.7C14.8005 36.3 14.1005 36.6 13.6005 36.6C12.7005 36.6 12.8005 35.6 12.2005 35.6C11.6005 35.6 11.5005 37.4 12.7005 39.5C13.5005 40.9 14.4005 42.2 15.7005 43.5C16.8005 44.6 18.4005 45.9 20.3005 47.1C22.1005 48.2 24.3005 49.3 26.8005 50.1V54.4C23.1005 53.3 20.1005 51.7 18.2005 50.5C16.0005 49.5 14.3005 48.1 12.4005 46.3Z" fill="#B28867"/>
<path d="M34.2005 65.1C31.5005 65.4 30.4005 63.8 30.4005 63.8C30.4005 63.8 28.5005 65.4 25.6005 65.1C23.4005 64.8 21.9005 63.4 21.5005 62.2V62.1C21.5005 62 21.4005 61.9 21.4005 61.8C21.3005 60.8 22.0005 59.9 23.1005 59.8C24.1005 59.7 24.8005 60.3 25.1005 61.2C25.4005 62 25.7005 63.6 26.9005 63.2C27.3005 63.1 27.5005 62.4 27.5005 61.7V37.3L32.6005 44.9V59.7C32.6005 61.4 33.7005 62.2 34.6005 62.2C35.2005 62.2 35.8005 61.9 36.5005 61.2C37.1005 60.6 37.7005 60.6 37.8005 61.2C38.0005 63.6 36.2005 64.9 34.2005 65.1Z" fill="#B28867"/>
<path d="M33.3005 56V51.7C34.2005 51.8 35.1005 51.8 35.9005 51.8C39.1005 51.8 42.3005 51.2 45.2005 50L47.6005 54.5C43.1005 56.1 38.1005 56.6 33.3005 56Z" fill="#B28867"/>
<path d="M59.3005 58.2C58.3005 60.2 56.4005 61.1 54.9005 60.6C54.8005 61.1 54.7005 61.7 54.4005 62.2C54.0005 63 53.0005 64.4 51.2005 64.4C49.1005 64.4 47.8005 63 47.8005 62C47.8005 61.4 48.3005 61.1 48.7005 61.1C49.3005 61.1 49.6005 61.6 49.6005 62.1C49.6005 62.4 49.6005 62.7 49.9005 62.8C50.4005 63.1 52.0005 61.1 51.1005 59.3L39.9005 38.3C40.4005 37.3 41.6005 35.9 44.0005 35.8L54.8005 55.9C56.4005 58.1 57.9005 57 58.1005 56.7C58.3005 56.3 58.1005 55.6 57.6005 55.5H57.5005C57.3005 55.5 57.1005 55.4 56.9005 55.3C56.1005 54.9 55.7005 54 56.0005 53.2C56.4005 52.5 57.3005 52.2 58.2005 52.7C58.2005 52.7 58.3005 52.7 58.3005 52.8C59.6005 53.3 60.3005 56.2 59.3005 58.2Z" fill="#B28867"/>
<path d="M47.8005 36.7C49.5005 37.3 51.2005 38 53.0005 38.3L53.9005 40.7C53.6005 41.2 53.2005 41.7 52.8005 42.2C52.1005 43 51.4005 43.7 50.6005 44.4L47.8005 36.7Z" fill="#B28867"/>
<path d="M64.4005 39.2C63.7005 41 62.5005 43.4 60.9005 45.5C60.3005 46.2 59.7005 47 59.1005 47.6C58.3005 48.4 57.4005 49.2 56.5005 49.9C55.6005 50.6 54.7005 51.2 53.7005 51.8C53.7005 51.8 53.7005 51.8 53.6005 51.8L50.9005 46.8C52.2005 45.9 53.3005 44.8 54.4005 43.6C55.6005 42.2 56.5005 40.7 57.2005 39.1C57.5005 38.3 57.8005 37.5 58.0005 36.6C58.1005 36.3 58.1005 36 58.2005 35.7C57.8005 36.2 57.2005 36.6 56.0005 36.8C53.1005 37.4 49.9005 35.9 46.9005 34.8C42.6005 33.2 39.8005 35.8 39.2005 36.8L37.8005 34.1C38.6005 33.1 40.6005 30.8 44.3005 30.2C49.4005 29.4 54.3005 32.7 56.6005 32.7C57.3005 32.7 58.0005 32.2 57.9005 31.4C57.7005 30.6 57.4005 29.9 57.1005 29.2C56.4005 27.6 55.4005 26.1 54.2005 24.7C51.9005 21.9 48.8005 19.8 45.7005 18.4C45.3005 18.2 45.0005 18.1 44.6005 18L46.8005 13.8C47.1005 13.9 47.3005 14 47.6005 14C48.6005 14.3 49.6005 14.7 50.6005 15.2C51.6005 15.6 52.5005 16.1 53.5005 16.7C54.4005 17.3 55.4005 17.9 56.3005 18.6C56.7005 18.9 57.2005 19.3 57.6005 19.7C58.0005 20.1 58.4005 20.5 58.8005 20.9C62.1005 24.2 63.3005 26.7 64.9005 30.3C65.5005 31.8 66.3005 33.1 68.1005 34.3C65.7005 35.6 65.2005 37.3 64.4005 39.2Z" fill="#B28867"/>
</svg>
